<svg xmlns="http://www.w3.org/2000/svg" width="16" height="20" viewBox="0 0 16 20">
  <path id="Shape" d="M3,20a2.849,2.849,0,0,1-3-2.662c0-.016,0-.033,0-.049l1.144-12.9a.549.549,0,0,1,.548-.5H4.051a3.95,3.95,0,0,1,7.9,0H14.3a.551.551,0,0,1,.547.5L16,17.288a.185.185,0,0,1,0,.049A2.85,2.85,0,0,1,13,20Z" fill="#fff"/>
</svg>
